%YAML 1.1
%TAG !u! tag:unity3d.com,2011:
--- !u!114 &11400000
MonoBehaviour:
  m_ObjectHideFlags: 0
  m_CorrespondingSourceObject: {fileID: 0}
  m_PrefabInstance: {fileID: 0}
  m_PrefabAsset: {fileID: 0}
  m_GameObject: {fileID: 0}
  m_Enabled: 1
  m_EditorHideFlags: 0
  m_Script: {fileID: 11500000, guid: 8ff442f35561c2a4a958b98869542197, type: 3}
  m_Name: GunsData
  m_EditorClassIdentifier: 
  runes:
  - name: 1
    dmgChange: 0.05
    model: 1
    speedOfBullet: 15
    loadingManaTime: 0.2
    manaCost: 1
    manaStorage: 0
    maxManaStorage: 25
    manaChange: 1
    knockBack: 3
    modOfDmg: 1.2
    modOfRecail: 0.5
    modBulletSpeed: 1.3
    modOfManaStorage: 1.2
    modOfManaCharge: 0.9
    modOfManaCost: 0.9
    modKnockBack: 1.2
    lenght: 4
    wScatter: {x: 0, y: 0}
    wScatterMod: {x: 0, y: 0}
    _preFab: {fileID: 5672855073103372414, guid: 60106f9090446314f8a5a2f6a0c00d98,
      type: 3}
    descriptions: Lorem ipsum dolor sit amet, consectetur adipiscing elit, sed do
      eiusmod tempor incididunt ut labore et dolore magna aliqua. Ut enim ad minim
      veniam, quis nostrud exercitation ullamco laboris nisi ut aliquip ex ea commodo
      consequat. Duis aute irure dolor in reprehenderit in voluptate velit esse cillum
      dolore eu fugiat nulla pariatur. Excepteur sint occaecat cupidatat non proident,
      sunt in culpa qui officia deserunt mollit anim id est laborum.
  - name: 2
    dmgChange: 1
    model: 2
    speedOfBullet: 0
    loadingManaTime: 0.1
    manaCost: 1
    manaStorage: 0
    maxManaStorage: 2
    manaChange: 1
    knockBack: 0
    modOfDmg: 0
    modOfRecail: 0.9
    modBulletSpeed: 0
    modOfManaStorage: 1.1
    modOfManaCharge: 0
    modOfManaCost: 0.9
    modKnockBack: 0
    lenght: 1
    wScatter: {x: 0.06, y: 0.01}
    wScatterMod: {x: 0.8, y: 0.8}
    _preFab: {fileID: 3069408608544421241, guid: a5d180830f110254c9c60103e78e975f,
      type: 3}
    descriptions: Lorem ipsum dolor sit amet, consectetur adipiscing elit, sed do
      eiusmod tempor incididunt ut labore et dolore magna aliqua. Ut enim ad minim
      veniam, quis nostrud exercitation ullamco laboris nisi ut aliquip ex ea commodo
      consequat. Duis aute irure dolor in reprehenderit in voluptate velit esse cillum
      dolore eu fugiat nulla pariatur. Excepteur sint occaecat cupidatat non proident,
      sunt in culpa qui officia deserunt mollit anim id est laborum.
  - name: 3
    dmgChange: 0.9
    model: 3
    speedOfBullet: 0
    loadingManaTime: 0.1
    manaCost: 1
    manaStorage: 0
    maxManaStorage: 25
    manaChange: 2
    knockBack: 0
    modOfDmg: 1.1
    modOfRecail: 0.9
    modBulletSpeed: 0
    modOfManaStorage: 1.5
    modOfManaCharge: 1.1
    modOfManaCost: 0.9
    modKnockBack: 0
    lenght: 1
    wScatter: {x: 0, y: 0}
    wScatterMod: {x: 0, y: 0}
    _preFab: {fileID: 5682717001296503741, guid: e9dfde7e5816eec4e80dee7778395865,
      type: 3}
    descriptions: Lorem ipsum dolor sit amet, consectetur adipiscing elit, sed do
      eiusmod tempor incididunt ut labore et dolore magna aliqua. Ut enim ad minim
      veniam, quis nostrud exercitation ullamco laboris nisi ut aliquip ex ea commodo
      consequat. Duis aute irure dolor in reprehenderit in voluptate velit esse cillum
      dolore eu fugiat nulla pariatur. Excepteur sint occaecat cupidatat non proident,
      sunt in culpa qui officia deserunt mollit anim id est laborum.
  - name: 4
    dmgChange: 0.3
    model: 4
    speedOfBullet: 0
    loadingManaTime: 0.2
    manaCost: 3
    manaStorage: 0
    maxManaStorage: 50
    manaChange: 0.9
    knockBack: 0
    modOfDmg: 1.05
    modOfRecail: 0.9
    modBulletSpeed: 0
    modOfManaStorage: 1.5
    modOfManaCharge: 1.1
    modOfManaCost: 0.9
    modKnockBack: 0
    lenght: 3
    wScatter: {x: 0.1, y: 0.1}
    wScatterMod: {x: 0.8, y: 0.8}
    _preFab: {fileID: 1096683171779341023, guid: d0ab0c271f851ee458e964d65ee7d1bf,
      type: 3}
    descriptions: Lorem ipsum dolor sit amet, consectetur adipiscing elit, sed do
      eiusmod tempor incididunt ut labore et dolore magna aliqua. Ut enim ad minim
      veniam, quis nostrud exercitation ullamco laboris nisi ut aliquip ex ea commodo
      consequat. Duis aute irure dolor in reprehenderit in voluptate velit esse cillum
      dolore eu fugiat nulla pariatur. Excepteur sint occaecat cupidatat non proident,
      sunt in culpa qui officia deserunt mollit anim id est laborum.
