%YAML 1.1
%TAG !u! tag:unity3d.com,2011:
--- !u!114 &11400000
MonoBehaviour:
  m_ObjectHideFlags: 0
  m_CorrespondingSourceObject: {fileID: 0}
  m_PrefabInstance: {fileID: 0}
  m_PrefabAsset: {fileID: 0}
  m_GameObject: {fileID: 0}
  m_Enabled: 1
  m_EditorHideFlags: 0
  m_Script: {fileID: 11500000, guid: 1cacd51805f9b7f4fab5146b78702a8f, type: 3}
  m_Name: ModsGroth
  m_EditorClassIdentifier: 
  lineralData:
    playerSpeed: 1
    playerJumpPower: 1
    playerDaschPower: 1
    enemySpeed: 1
    enemyDmg: 1
    enemyNumber: 1
    enemyElite: 1
    enemyHp: 1
    playerMaxHp: 1
    playerMaxMana: 1
  geometricData:
    playerSpeed: 0.1
    playerJumpPower: 0.1
    playerDaschPower: 0.1
    enemySpeed: 0.1
    enemyDmg: 0.1
    enemyNumber: 0.1
    enemyElite: 0.1
    enemyHp: 0.1
    playerMaxHp: 0.1
    playerMaxMana: 0.1
